{"failedCount":0,"prefixedPath":"classpath:examples\/users\/Get.feature","packageQualifiedName":"examples.users.Get","loopIndex":-1,"relativePath":"examples\/users\/Get.feature","scenarioResults":[{"sectionIndex":0,"stepResults":[{"result":{"nanos":1321800,"millis":1.3218,"status":"passed"},"step":{"background":true,"line":4,"prefix":"*","index":0,"text":"url 'https:\/\/reqres.in\/api'"},"stepLog":"11:39:42.512 karate.env system property was: null \n"},{"result":{"nanos":570100,"millis":0.5701,"status":"passed"},"step":{"background":true,"line":5,"prefix":"*","index":1,"text":"header Accept = 'application\/json'"}},{"result":{"nanos":437400,"millis":0.4374,"status":"passed"},"step":{"line":10,"prefix":"Given","index":0,"text":"url  'https:\/\/reqres.in\/api\/users\/2'"}},{"result":{"nanos":712078700,"millis":712.0787,"status":"passed"},"step":{"line":11,"prefix":"When","index":1,"text":"method GET"},"stepLog":"11:39:42.842 request:\n1 > GET https:\/\/reqres.in\/api\/users\/2\n1 > Accept: application\/json\n1 > Host: reqres.in\n1 > Connection: Keep-Alive\n1 > User-Agent: Apache-HttpClient\/4.5.13 (Java\/17.0.6)\n1 > Accept-Encoding: gzip,deflate\n\n\n11:39:43.265 response time in milliseconds: 419\n1 < 200\n1 < Date: Fri, 08 Mar 2024 06:09:43 GMT\n1 < Content-Type: application\/json; charset=utf-8\n1 < Transfer-Encoding: chunked\n1 < Connection: keep-alive\n1 < Report-To: {\"group\":\"heroku-nel\",\"max_age\":3600,\"endpoints\":[{\"url\":\"https:\/\/nel.heroku.com\/reports?ts=1709736140&sid=c4c9725f-1ab0-44d8-820f-430df2718e11&s=Q01AfIJYttLK3P3Bpqe%2FQ%2FkFSAouMGoDFoL0GbEUkTw%3D\"}]}\n1 < Reporting-Endpoints: heroku-nel=https:\/\/nel.heroku.com\/reports?ts=1709736140&sid=c4c9725f-1ab0-44d8-820f-430df2718e11&s=Q01AfIJYttLK3P3Bpqe%2FQ%2FkFSAouMGoDFoL0GbEUkTw%3D\n1 < Nel: {\"report_to\":\"heroku-nel\",\"max_age\":3600,\"success_fraction\":0.005,\"failure_fraction\":0.05,\"response_headers\":[\"Via\"]}\n1 < X-Powered-By: Express\n1 < Access-Control-Allow-Origin: *\n1 < Etag: W\/\"118-pbdwwFo9SKNhD3Lx5iHJyngpq00\"\n1 < Via: 1.1 vegur\n1 < Cache-Control: max-age=14400\n1 < CF-Cache-Status: HIT\n1 < Age: 5440\n1 < Vary: Accept-Encoding\n1 < Server: cloudflare\n1 < CF-RAY: 8610a8784ff2794a-AMD\n{\"data\":{\"id\":2,\"email\":\"janet.weaver@reqres.in\",\"first_name\":\"Janet\",\"last_name\":\"Weaver\",\"avatar\":\"https:\/\/reqres.in\/img\/faces\/2-image.jpg\"},\"support\":{\"url\":\"https:\/\/reqres.in\/#support-heading\",\"text\":\"To keep ReqRes free, contributions towards server costs are appreciated!\"}}\n\n"},{"result":{"nanos":9300,"millis":0.0093,"status":"passed"},"step":{"line":12,"prefix":"Then","index":2,"text":"status 200"}},{"result":{"nanos":9184300,"millis":9.1843,"status":"passed"},"step":{"line":13,"prefix":"And","index":3,"text":"print response"},"stepLog":"11:39:43.277 [print] {\n  \"data\": {\n    \"id\": 2,\n    \"email\": \"janet.weaver@reqres.in\",\n    \"first_name\": \"Janet\",\n    \"last_name\": \"Weaver\",\n    \"avatar\": \"https:\/\/reqres.in\/img\/faces\/2-image.jpg\"\n  },\n  \"support\": {\n    \"url\": \"https:\/\/reqres.in\/#support-heading\",\n    \"text\": \"To keep ReqRes free, contributions towards server costs are appreciated!\"\n  }\n}\n \n"},{"result":{"nanos":2018000,"millis":2.018,"status":"passed"},"step":{"line":14,"prefix":"And","index":4,"text":"print responseStatus"},"stepLog":"11:39:43.281 [print] 200 \n"},{"result":{"nanos":1662200,"millis":1.6622,"status":"passed"},"step":{"line":15,"prefix":"And","index":5,"text":"print responseTime"},"stepLog":"11:39:43.282 [print] 419 \n"},{"result":{"nanos":2619000,"millis":2.619,"status":"passed"},"step":{"line":16,"prefix":"And","index":6,"text":"print responseHeaders"},"stepLog":"11:39:43.283 [print] {\n  \"Date\": [\n    \"Fri, 08 Mar 2024 06:09:43 GMT\"\n  ],\n  \"Content-Type\": [\n    \"application\/json; charset=utf-8\"\n  ],\n  \"Transfer-Encoding\": [\n    \"chunked\"\n  ],\n  \"Connection\": [\n    \"keep-alive\"\n  ],\n  \"Report-To\": [\n    \"{\\\"group\\\":\\\"heroku-nel\\\",\\\"max_age\\\":3600,\\\"endpoints\\\":[{\\\"url\\\":\\\"https:\/\/nel.heroku.com\/reports?ts=1709736140&sid=c4c9725f-1ab0-44d8-820f-430df2718e11&s=Q01AfIJYttLK3P3Bpqe%2FQ%2FkFSAouMGoDFoL0GbEUkTw%3D\\\"}]}\"\n  ],\n  \"Reporting-Endpoints\": [\n    \"heroku-nel=https:\/\/nel.heroku.com\/reports?ts=1709736140&sid=c4c9725f-1ab0-44d8-820f-430df2718e11&s=Q01AfIJYttLK3P3Bpqe%2FQ%2FkFSAouMGoDFoL0GbEUkTw%3D\"\n  ],\n  \"Nel\": [\n    \"{\\\"report_to\\\":\\\"heroku-nel\\\",\\\"max_age\\\":3600,\\\"success_fraction\\\":0.005,\\\"failure_fraction\\\":0.05,\\\"response_headers\\\":[\\\"Via\\\"]}\"\n  ],\n  \"X-Powered-By\": [\n    \"Express\"\n  ],\n  \"Access-Control-Allow-Origin\": [\n    \"*\"\n  ],\n  \"Etag\": [\n    \"W\/\\\"118-pbdwwFo9SKNhD3Lx5iHJyngpq00\\\"\"\n  ],\n  \"Via\": [\n    \"1.1 vegur\"\n  ],\n  \"Cache-Control\": [\n    \"max-age=14400\"\n  ],\n  \"CF-Cache-Status\": [\n    \"HIT\"\n  ],\n  \"Age\": [\n    \"5440\"\n  ],\n  \"Vary\": [\n    \"Accept-Encoding\"\n  ],\n  \"Server\": [\n    \"cloudflare\"\n  ],\n  \"CF-RAY\": [\n    \"8610a8784ff2794a-AMD\"\n  ]\n}\n \n"},{"result":{"nanos":1760500,"millis":1.7605,"status":"passed"},"step":{"line":17,"prefix":"And","index":7,"text":"print responseCookies"},"stepLog":"11:39:43.283 [print] null \n"}],"executorName":"pool-1-thread-1","line":9,"name":"GET - Test a Sample GET API - 1","description":"","durationMillis":731.6613,"startTime":1709878182348,"failed":false,"refId":"[1:9]","endTime":1709878183283,"exampleIndex":-1},{"sectionIndex":1,"stepResults":[{"result":{"nanos":1258300,"millis":1.2583,"status":"passed"},"step":{"background":true,"line":4,"prefix":"*","index":0,"text":"url 'https:\/\/reqres.in\/api'"},"stepLog":"11:39:42.512 karate.env system property was: null \n"},{"result":{"nanos":600800,"millis":0.6008,"status":"passed"},"step":{"background":true,"line":5,"prefix":"*","index":1,"text":"header Accept = 'application\/json'"}},{"result":{"nanos":299900,"millis":0.2999,"status":"passed"},"step":{"line":21,"prefix":"Given","index":0,"text":"path  '\/users?page=2'"}},{"result":{"nanos":711166400,"millis":711.1664,"status":"passed"},"step":{"line":22,"prefix":"When","index":1,"text":"method GET"},"stepLog":"11:39:42.842 request:\n1 > GET https:\/\/reqres.in\/api\/users%3Fpage=2\n1 > Accept: application\/json\n1 > Host: reqres.in\n1 > Connection: Keep-Alive\n1 > User-Agent: Apache-HttpClient\/4.5.13 (Java\/17.0.6)\n1 > Accept-Encoding: gzip,deflate\n\n\n11:39:43.265 response time in milliseconds: 416\n1 < 200\n1 < Date: Fri, 08 Mar 2024 06:09:43 GMT\n1 < Content-Type: application\/json; charset=utf-8\n1 < Transfer-Encoding: chunked\n1 < Connection: keep-alive\n1 < Report-To: {\"group\":\"heroku-nel\",\"max_age\":3600,\"endpoints\":[{\"url\":\"https:\/\/nel.heroku.com\/reports?ts=1709877519&sid=c4c9725f-1ab0-44d8-820f-430df2718e11&s=X3ztwjlS2gWTSjpqJeeUujuov5HeFyRCq4a%2FusSNwAk%3D\"}]}\n1 < Reporting-Endpoints: heroku-nel=https:\/\/nel.heroku.com\/reports?ts=1709877519&sid=c4c9725f-1ab0-44d8-820f-430df2718e11&s=X3ztwjlS2gWTSjpqJeeUujuov5HeFyRCq4a%2FusSNwAk%3D\n1 < Nel: {\"report_to\":\"heroku-nel\",\"max_age\":3600,\"success_fraction\":0.005,\"failure_fraction\":0.05,\"response_headers\":[\"Via\"]}\n1 < X-Powered-By: Express\n1 < Access-Control-Allow-Origin: *\n1 < Etag: W\/\"2c1-N6Rqerxquq2kgQhL51EiSg4x0R8\"\n1 < Via: 1.1 vegur\n1 < Cache-Control: max-age=14400\n1 < CF-Cache-Status: HIT\n1 < Age: 664\n1 < Vary: Accept-Encoding\n1 < Server: cloudflare\n1 < CF-RAY: 8610a8784de6793d-AMD\n{\"page\":1,\"per_page\":6,\"total\":12,\"total_pages\":2,\"data\":[{\"id\":1,\"name\":\"cerulean\",\"year\":2000,\"color\":\"#98B2D1\",\"pantone_value\":\"15-4020\"},{\"id\":2,\"name\":\"fuchsia rose\",\"year\":2001,\"color\":\"#C74375\",\"pantone_value\":\"17-2031\"},{\"id\":3,\"name\":\"true red\",\"year\":2002,\"color\":\"#BF1932\",\"pantone_value\":\"19-1664\"},{\"id\":4,\"name\":\"aqua sky\",\"year\":2003,\"color\":\"#7BC4C4\",\"pantone_value\":\"14-4811\"},{\"id\":5,\"name\":\"tigerlily\",\"year\":2004,\"color\":\"#E2583E\",\"pantone_value\":\"17-1456\"},{\"id\":6,\"name\":\"blue turquoise\",\"year\":2005,\"color\":\"#53B0AE\",\"pantone_value\":\"15-5217\"}],\"support\":{\"url\":\"https:\/\/reqres.in\/#support-heading\",\"text\":\"To keep ReqRes free, contributions towards server costs are appreciated!\"}}\n\n"},{"result":{"nanos":29000,"millis":0.029,"status":"passed"},"step":{"line":23,"prefix":"Then","index":2,"text":"status 200"}},{"result":{"nanos":10184400,"millis":10.1844,"status":"passed"},"step":{"line":24,"prefix":"And","index":3,"text":"print response"},"stepLog":"11:39:43.277 [print] {\n  \"page\": 1,\n  \"per_page\": 6,\n  \"total\": 12,\n  \"total_pages\": 2,\n  \"data\": [\n    {\n      \"id\": 1,\n      \"name\": \"cerulean\",\n      \"year\": 2000,\n      \"color\": \"#98B2D1\",\n      \"pantone_value\": \"15-4020\"\n    },\n    {\n      \"id\": 2,\n      \"name\": \"fuchsia rose\",\n      \"year\": 2001,\n      \"color\": \"#C74375\",\n      \"pantone_value\": \"17-2031\"\n    },\n    {\n      \"id\": 3,\n      \"name\": \"true red\",\n      \"year\": 2002,\n      \"color\": \"#BF1932\",\n      \"pantone_value\": \"19-1664\"\n    },\n    {\n      \"id\": 4,\n      \"name\": \"aqua sky\",\n      \"year\": 2003,\n      \"color\": \"#7BC4C4\",\n      \"pantone_value\": \"14-4811\"\n    },\n    {\n      \"id\": 5,\n      \"name\": \"tigerlily\",\n      \"year\": 2004,\n      \"color\": \"#E2583E\",\n      \"pantone_value\": \"17-1456\"\n    },\n    {\n      \"id\": 6,\n      \"name\": \"blue turquoise\",\n      \"year\": 2005,\n      \"color\": \"#53B0AE\",\n      \"pantone_value\": \"15-5217\"\n    }\n  ],\n  \"support\": {\n    \"url\": \"https:\/\/reqres.in\/#support-heading\",\n    \"text\": \"To keep ReqRes free, contributions towards server costs are appreciated!\"\n  }\n}\n \n"},{"result":{"nanos":2018000,"millis":2.018,"status":"passed"},"step":{"line":25,"prefix":"And","index":4,"text":"print responseStatus"},"stepLog":"11:39:43.281 [print] 200 \n"},{"result":{"nanos":2380000,"millis":2.38,"status":"passed"},"step":{"line":26,"prefix":"And","index":5,"text":"print responseTime"},"stepLog":"11:39:43.283 [print] 416 \n"},{"result":{"nanos":2957900,"millis":2.9579,"status":"passed"},"step":{"line":27,"prefix":"And","index":6,"text":"print responseHeaders"},"stepLog":"11:39:43.283 [print] {\n  \"Date\": [\n    \"Fri, 08 Mar 2024 06:09:43 GMT\"\n  ],\n  \"Content-Type\": [\n    \"application\/json; charset=utf-8\"\n  ],\n  \"Transfer-Encoding\": [\n    \"chunked\"\n  ],\n  \"Connection\": [\n    \"keep-alive\"\n  ],\n  \"Report-To\": [\n    \"{\\\"group\\\":\\\"heroku-nel\\\",\\\"max_age\\\":3600,\\\"endpoints\\\":[{\\\"url\\\":\\\"https:\/\/nel.heroku.com\/reports?ts=1709877519&sid=c4c9725f-1ab0-44d8-820f-430df2718e11&s=X3ztwjlS2gWTSjpqJeeUujuov5HeFyRCq4a%2FusSNwAk%3D\\\"}]}\"\n  ],\n  \"Reporting-Endpoints\": [\n    \"heroku-nel=https:\/\/nel.heroku.com\/reports?ts=1709877519&sid=c4c9725f-1ab0-44d8-820f-430df2718e11&s=X3ztwjlS2gWTSjpqJeeUujuov5HeFyRCq4a%2FusSNwAk%3D\"\n  ],\n  \"Nel\": [\n    \"{\\\"report_to\\\":\\\"heroku-nel\\\",\\\"max_age\\\":3600,\\\"success_fraction\\\":0.005,\\\"failure_fraction\\\":0.05,\\\"response_headers\\\":[\\\"Via\\\"]}\"\n  ],\n  \"X-Powered-By\": [\n    \"Express\"\n  ],\n  \"Access-Control-Allow-Origin\": [\n    \"*\"\n  ],\n  \"Etag\": [\n    \"W\/\\\"2c1-N6Rqerxquq2kgQhL51EiSg4x0R8\\\"\"\n  ],\n  \"Via\": [\n    \"1.1 vegur\"\n  ],\n  \"Cache-Control\": [\n    \"max-age=14400\"\n  ],\n  \"CF-Cache-Status\": [\n    \"HIT\"\n  ],\n  \"Age\": [\n    \"664\"\n  ],\n  \"Vary\": [\n    \"Accept-Encoding\"\n  ],\n  \"Server\": [\n    \"cloudflare\"\n  ],\n  \"CF-RAY\": [\n    \"8610a8784de6793d-AMD\"\n  ]\n}\n \n"},{"result":{"nanos":1143400,"millis":1.1434,"status":"passed"},"step":{"line":28,"prefix":"And","index":7,"text":"print responseCookies"},"stepLog":"11:39:43.283 [print] null \n"}],"executorName":"pool-1-thread-2","line":20,"name":"GET - Test a Sample GET API - 2","description":"","durationMillis":732.0381,"startTime":1709878182353,"failed":false,"refId":"[2:20]","endTime":1709878183283,"exampleIndex":-1}],"callDepth":0,"name":"GET - Sample API test cases","description":"","resultDate":"2024-03-08 11:39:43 am","durationMillis":1463.6994,"passedCount":2}