{"failedCount":0,"prefixedPath":"classpath:examples\/users\/Get.feature","packageQualifiedName":"examples.users.Get","loopIndex":-1,"relativePath":"examples\/users\/Get.feature","scenarioResults":[{"sectionIndex":0,"stepResults":[{"result":{"nanos":816000,"millis":0.816,"status":"passed"},"step":{"background":true,"line":4,"prefix":"*","index":0,"text":"url 'https:\/\/reqres.in\/api'"},"stepLog":"11:33:02.854 karate.env system property was: null \n"},{"result":{"nanos":412200,"millis":0.4122,"status":"passed"},"step":{"background":true,"line":5,"prefix":"*","index":1,"text":"header Accept = 'application\/json'"}},{"result":{"nanos":221400,"millis":0.2214,"status":"passed"},"step":{"line":10,"prefix":"Given","index":0,"text":"url  'https:\/\/reqres.in\/api\/users\/2'"}},{"result":{"nanos":682808200,"millis":682.8082,"status":"passed"},"step":{"line":11,"prefix":"When","index":1,"text":"method GET"},"stepLog":"11:33:03.170 request:\n1 > GET https:\/\/reqres.in\/api\/users\/2\n1 > Accept: application\/json\n1 > Host: reqres.in\n1 > Connection: Keep-Alive\n1 > User-Agent: Apache-HttpClient\/4.5.13 (Java\/17.0.6)\n1 > Accept-Encoding: gzip,deflate\n\n\n11:33:03.572 response time in milliseconds: 400\n1 < 200\n1 < Date: Fri, 08 Mar 2024 06:03:04 GMT\n1 < Content-Type: application\/json; charset=utf-8\n1 < Transfer-Encoding: chunked\n1 < Connection: keep-alive\n1 < Report-To: {\"group\":\"heroku-nel\",\"max_age\":3600,\"endpoints\":[{\"url\":\"https:\/\/nel.heroku.com\/reports?ts=1709736140&sid=c4c9725f-1ab0-44d8-820f-430df2718e11&s=Q01AfIJYttLK3P3Bpqe%2FQ%2FkFSAouMGoDFoL0GbEUkTw%3D\"}]}\n1 < Reporting-Endpoints: heroku-nel=https:\/\/nel.heroku.com\/reports?ts=1709736140&sid=c4c9725f-1ab0-44d8-820f-430df2718e11&s=Q01AfIJYttLK3P3Bpqe%2FQ%2FkFSAouMGoDFoL0GbEUkTw%3D\n1 < Nel: {\"report_to\":\"heroku-nel\",\"max_age\":3600,\"success_fraction\":0.005,\"failure_fraction\":0.05,\"response_headers\":[\"Via\"]}\n1 < X-Powered-By: Express\n1 < Access-Control-Allow-Origin: *\n1 < Etag: W\/\"118-pbdwwFo9SKNhD3Lx5iHJyngpq00\"\n1 < Via: 1.1 vegur\n1 < Cache-Control: max-age=14400\n1 < CF-Cache-Status: HIT\n1 < Age: 5041\n1 < Vary: Accept-Encoding\n1 < Server: cloudflare\n1 < CF-RAY: 86109eb61c6d7950-AMD\n{\"data\":{\"id\":2,\"email\":\"janet.weaver@reqres.in\",\"first_name\":\"Janet\",\"last_name\":\"Weaver\",\"avatar\":\"https:\/\/reqres.in\/img\/faces\/2-image.jpg\"},\"support\":{\"url\":\"https:\/\/reqres.in\/#support-heading\",\"text\":\"To keep ReqRes free, contributions towards server costs are appreciated!\"}}\n\n"},{"result":{"nanos":42100,"millis":0.0421,"status":"passed"},"step":{"line":12,"prefix":"Then","index":2,"text":"status 200"}},{"result":{"nanos":6597200,"millis":6.5972,"status":"passed"},"step":{"line":13,"prefix":"And","index":3,"text":"print response"},"stepLog":"11:33:03.586 [print] {\n  \"data\": {\n    \"id\": 2,\n    \"email\": \"janet.weaver@reqres.in\",\n    \"first_name\": \"Janet\",\n    \"last_name\": \"Weaver\",\n    \"avatar\": \"https:\/\/reqres.in\/img\/faces\/2-image.jpg\"\n  },\n  \"support\": {\n    \"url\": \"https:\/\/reqres.in\/#support-heading\",\n    \"text\": \"To keep ReqRes free, contributions towards server costs are appreciated!\"\n  }\n}\n \n"},{"result":{"nanos":1451400,"millis":1.4514,"status":"passed"},"step":{"line":14,"prefix":"And","index":4,"text":"print responseStatus"},"stepLog":"11:33:03.588 [print] 200 \n"},{"result":{"nanos":1770200,"millis":1.7702,"status":"passed"},"step":{"line":15,"prefix":"And","index":5,"text":"print responseTime"},"stepLog":"11:33:03.590 [print] 400 \n"},{"result":{"nanos":1639700,"millis":1.6397,"status":"passed"},"step":{"line":16,"prefix":"And","index":6,"text":"print responseHeaders"},"stepLog":"11:33:03.592 [print] {\n  \"Date\": [\n    \"Fri, 08 Mar 2024 06:03:04 GMT\"\n  ],\n  \"Content-Type\": [\n    \"application\/json; charset=utf-8\"\n  ],\n  \"Transfer-Encoding\": [\n    \"chunked\"\n  ],\n  \"Connection\": [\n    \"keep-alive\"\n  ],\n  \"Report-To\": [\n    \"{\\\"group\\\":\\\"heroku-nel\\\",\\\"max_age\\\":3600,\\\"endpoints\\\":[{\\\"url\\\":\\\"https:\/\/nel.heroku.com\/reports?ts=1709736140&sid=c4c9725f-1ab0-44d8-820f-430df2718e11&s=Q01AfIJYttLK3P3Bpqe%2FQ%2FkFSAouMGoDFoL0GbEUkTw%3D\\\"}]}\"\n  ],\n  \"Reporting-Endpoints\": [\n    \"heroku-nel=https:\/\/nel.heroku.com\/reports?ts=1709736140&sid=c4c9725f-1ab0-44d8-820f-430df2718e11&s=Q01AfIJYttLK3P3Bpqe%2FQ%2FkFSAouMGoDFoL0GbEUkTw%3D\"\n  ],\n  \"Nel\": [\n    \"{\\\"report_to\\\":\\\"heroku-nel\\\",\\\"max_age\\\":3600,\\\"success_fraction\\\":0.005,\\\"failure_fraction\\\":0.05,\\\"response_headers\\\":[\\\"Via\\\"]}\"\n  ],\n  \"X-Powered-By\": [\n    \"Express\"\n  ],\n  \"Access-Control-Allow-Origin\": [\n    \"*\"\n  ],\n  \"Etag\": [\n    \"W\/\\\"118-pbdwwFo9SKNhD3Lx5iHJyngpq00\\\"\"\n  ],\n  \"Via\": [\n    \"1.1 vegur\"\n  ],\n  \"Cache-Control\": [\n    \"max-age=14400\"\n  ],\n  \"CF-Cache-Status\": [\n    \"HIT\"\n  ],\n  \"Age\": [\n    \"5041\"\n  ],\n  \"Vary\": [\n    \"Accept-Encoding\"\n  ],\n  \"Server\": [\n    \"cloudflare\"\n  ],\n  \"CF-RAY\": [\n    \"86109eb61c6d7950-AMD\"\n  ]\n}\n \n"},{"result":{"nanos":1732100,"millis":1.7321,"status":"passed"},"step":{"line":17,"prefix":"And","index":7,"text":"print responseCookies"},"stepLog":"11:33:03.594 [print] null \n"}],"executorName":"pool-1-thread-1","line":9,"name":"GET - Test a Sample GET API - 1","description":"","durationMillis":697.4905,"startTime":1709877782741,"failed":false,"refId":"[1:9]","endTime":1709877783594,"exampleIndex":-1},{"sectionIndex":1,"stepResults":[{"result":{"nanos":814900,"millis":0.8149,"status":"passed"},"step":{"background":true,"line":4,"prefix":"*","index":0,"text":"url 'https:\/\/reqres.in\/api'"},"stepLog":"11:33:02.854 karate.env system property was: null \n"},{"result":{"nanos":519500,"millis":0.5195,"status":"passed"},"step":{"background":true,"line":5,"prefix":"*","index":1,"text":"header Accept = 'application\/json'"}},{"result":{"nanos":207300,"millis":0.2073,"status":"passed"},"step":{"line":21,"prefix":"Given","index":0,"text":"path  '\/users?page=2'"}},{"result":{"nanos":682775200,"millis":682.7752,"status":"passed"},"step":{"line":22,"prefix":"When","index":1,"text":"method GET"},"stepLog":"11:33:03.170 request:\n1 > GET https:\/\/reqres.in\/api\/users%3Fpage=2\n1 > Accept: application\/json\n1 > Host: reqres.in\n1 > Connection: Keep-Alive\n1 > User-Agent: Apache-HttpClient\/4.5.13 (Java\/17.0.6)\n1 > Accept-Encoding: gzip,deflate\n\n\n11:33:03.572 response time in milliseconds: 400\n1 < 200\n1 < Date: Fri, 08 Mar 2024 06:03:04 GMT\n1 < Content-Type: application\/json; charset=utf-8\n1 < Transfer-Encoding: chunked\n1 < Connection: keep-alive\n1 < Report-To: {\"group\":\"heroku-nel\",\"max_age\":3600,\"endpoints\":[{\"url\":\"https:\/\/nel.heroku.com\/reports?ts=1709877519&sid=c4c9725f-1ab0-44d8-820f-430df2718e11&s=X3ztwjlS2gWTSjpqJeeUujuov5HeFyRCq4a%2FusSNwAk%3D\"}]}\n1 < Reporting-Endpoints: heroku-nel=https:\/\/nel.heroku.com\/reports?ts=1709877519&sid=c4c9725f-1ab0-44d8-820f-430df2718e11&s=X3ztwjlS2gWTSjpqJeeUujuov5HeFyRCq4a%2FusSNwAk%3D\n1 < Nel: {\"report_to\":\"heroku-nel\",\"max_age\":3600,\"success_fraction\":0.005,\"failure_fraction\":0.05,\"response_headers\":[\"Via\"]}\n1 < X-Powered-By: Express\n1 < Access-Control-Allow-Origin: *\n1 < Etag: W\/\"2c1-N6Rqerxquq2kgQhL51EiSg4x0R8\"\n1 < Via: 1.1 vegur\n1 < Cache-Control: max-age=14400\n1 < CF-Cache-Status: HIT\n1 < Age: 265\n1 < Vary: Accept-Encoding\n1 < Server: cloudflare\n1 < CF-RAY: 86109eb62c7f7950-AMD\n{\"page\":1,\"per_page\":6,\"total\":12,\"total_pages\":2,\"data\":[{\"id\":1,\"name\":\"cerulean\",\"year\":2000,\"color\":\"#98B2D1\",\"pantone_value\":\"15-4020\"},{\"id\":2,\"name\":\"fuchsia rose\",\"year\":2001,\"color\":\"#C74375\",\"pantone_value\":\"17-2031\"},{\"id\":3,\"name\":\"true red\",\"year\":2002,\"color\":\"#BF1932\",\"pantone_value\":\"19-1664\"},{\"id\":4,\"name\":\"aqua sky\",\"year\":2003,\"color\":\"#7BC4C4\",\"pantone_value\":\"14-4811\"},{\"id\":5,\"name\":\"tigerlily\",\"year\":2004,\"color\":\"#E2583E\",\"pantone_value\":\"17-1456\"},{\"id\":6,\"name\":\"blue turquoise\",\"year\":2005,\"color\":\"#53B0AE\",\"pantone_value\":\"15-5217\"}],\"support\":{\"url\":\"https:\/\/reqres.in\/#support-heading\",\"text\":\"To keep ReqRes free, contributions towards server costs are appreciated!\"}}\n\n"},{"result":{"nanos":43000,"millis":0.043,"status":"passed"},"step":{"line":23,"prefix":"Then","index":2,"text":"status 200"}},{"result":{"nanos":6601300,"millis":6.6013,"status":"passed"},"step":{"line":24,"prefix":"And","index":3,"text":"print response"},"stepLog":"11:33:03.586 [print] {\n  \"page\": 1,\n  \"per_page\": 6,\n  \"total\": 12,\n  \"total_pages\": 2,\n  \"data\": [\n    {\n      \"id\": 1,\n      \"name\": \"cerulean\",\n      \"year\": 2000,\n      \"color\": \"#98B2D1\",\n      \"pantone_value\": \"15-4020\"\n    },\n    {\n      \"id\": 2,\n      \"name\": \"fuchsia rose\",\n      \"year\": 2001,\n      \"color\": \"#C74375\",\n      \"pantone_value\": \"17-2031\"\n    },\n    {\n      \"id\": 3,\n      \"name\": \"true red\",\n      \"year\": 2002,\n      \"color\": \"#BF1932\",\n      \"pantone_value\": \"19-1664\"\n    },\n    {\n      \"id\": 4,\n      \"name\": \"aqua sky\",\n      \"year\": 2003,\n      \"color\": \"#7BC4C4\",\n      \"pantone_value\": \"14-4811\"\n    },\n    {\n      \"id\": 5,\n      \"name\": \"tigerlily\",\n      \"year\": 2004,\n      \"color\": \"#E2583E\",\n      \"pantone_value\": \"17-1456\"\n    },\n    {\n      \"id\": 6,\n      \"name\": \"blue turquoise\",\n      \"year\": 2005,\n      \"color\": \"#53B0AE\",\n      \"pantone_value\": \"15-5217\"\n    }\n  ],\n  \"support\": {\n    \"url\": \"https:\/\/reqres.in\/#support-heading\",\n    \"text\": \"To keep ReqRes free, contributions towards server costs are appreciated!\"\n  }\n}\n \n"},{"result":{"nanos":1452100,"millis":1.4521,"status":"passed"},"step":{"line":25,"prefix":"And","index":4,"text":"print responseStatus"},"stepLog":"11:33:03.588 [print] 200 \n"},{"result":{"nanos":1689700,"millis":1.6897,"status":"passed"},"step":{"line":26,"prefix":"And","index":5,"text":"print responseTime"},"stepLog":"11:33:03.590 [print] 400 \n"},{"result":{"nanos":1684700,"millis":1.6847,"status":"passed"},"step":{"line":27,"prefix":"And","index":6,"text":"print responseHeaders"},"stepLog":"11:33:03.592 [print] {\n  \"Date\": [\n    \"Fri, 08 Mar 2024 06:03:04 GMT\"\n  ],\n  \"Content-Type\": [\n    \"application\/json; charset=utf-8\"\n  ],\n  \"Transfer-Encoding\": [\n    \"chunked\"\n  ],\n  \"Connection\": [\n    \"keep-alive\"\n  ],\n  \"Report-To\": [\n    \"{\\\"group\\\":\\\"heroku-nel\\\",\\\"max_age\\\":3600,\\\"endpoints\\\":[{\\\"url\\\":\\\"https:\/\/nel.heroku.com\/reports?ts=1709877519&sid=c4c9725f-1ab0-44d8-820f-430df2718e11&s=X3ztwjlS2gWTSjpqJeeUujuov5HeFyRCq4a%2FusSNwAk%3D\\\"}]}\"\n  ],\n  \"Reporting-Endpoints\": [\n    \"heroku-nel=https:\/\/nel.heroku.com\/reports?ts=1709877519&sid=c4c9725f-1ab0-44d8-820f-430df2718e11&s=X3ztwjlS2gWTSjpqJeeUujuov5HeFyRCq4a%2FusSNwAk%3D\"\n  ],\n  \"Nel\": [\n    \"{\\\"report_to\\\":\\\"heroku-nel\\\",\\\"max_age\\\":3600,\\\"success_fraction\\\":0.005,\\\"failure_fraction\\\":0.05,\\\"response_headers\\\":[\\\"Via\\\"]}\"\n  ],\n  \"X-Powered-By\": [\n    \"Express\"\n  ],\n  \"Access-Control-Allow-Origin\": [\n    \"*\"\n  ],\n  \"Etag\": [\n    \"W\/\\\"2c1-N6Rqerxquq2kgQhL51EiSg4x0R8\\\"\"\n  ],\n  \"Via\": [\n    \"1.1 vegur\"\n  ],\n  \"Cache-Control\": [\n    \"max-age=14400\"\n  ],\n  \"CF-Cache-Status\": [\n    \"HIT\"\n  ],\n  \"Age\": [\n    \"265\"\n  ],\n  \"Vary\": [\n    \"Accept-Encoding\"\n  ],\n  \"Server\": [\n    \"cloudflare\"\n  ],\n  \"CF-RAY\": [\n    \"86109eb62c7f7950-AMD\"\n  ]\n}\n \n"},{"result":{"nanos":1733400,"millis":1.7334,"status":"passed"},"step":{"line":28,"prefix":"And","index":7,"text":"print responseCookies"},"stepLog":"11:33:03.594 [print] null \n"}],"executorName":"pool-1-thread-2","line":20,"name":"GET - Test a Sample GET API - 2","description":"","durationMillis":697.5211,"startTime":1709877782738,"failed":false,"refId":"[2:20]","endTime":1709877783594,"exampleIndex":-1}],"callDepth":0,"name":"GET - Sample API test cases","description":"","resultDate":"2024-03-08 11:33:03 am","durationMillis":1395.0116,"passedCount":2}